{
  "response": {
    "status": "ok",
    "userTier": "developer",
    "total": 135996,
    "startIndex": 1,
    "pageSize": 10,
    "currentPage": 1,
    "pages": 13600,
    "orderBy": "relevance",
    "results": [
      {
        "id": "technology/2019/feb/18/huawei-founder-defies-us-over-criminal-charges-against-firm",
        "type": "article",
        "sectionId": "technology",
        "sectionName": "Technology",
        "webPublicationDate": "2019-02-18T23:50:33Z",
        "webTitle": "Huawei founder: US cannot crush technology firm",
        "webUrl": "https://www.theguardian.com/technology/2019/feb/18/huawei-founder-defies-us-over-criminal-charges-against-firm",
        "apiUrl": "https://content.guardianapis.com/technology/2019/feb/18/huawei-founder-defies-us-over-criminal-charges-against-firm",
        "isHosted": false,
        "pillarId": "pillar/news",
        "pillarName": "News"
      },
      {
        "id": "technology/2019/jan/05/why-big-tech-must-up-its-game-in-2019",
        "type": "article",
        "sectionId": "technology",
        "sectionName": "Technology",
        "webPublicationDate": "2019-01-05T17:00:21Z",
        "webTitle": "Seven ways technology will change in 2019",
        "webUrl": "https://www.theguardian.com/technology/2019/jan/05/why-big-tech-must-up-its-game-in-2019",
        "apiUrl": "https://content.guardianapis.com/technology/2019/jan/05/why-big-tech-must-up-its-game-in-2019",
        "isHosted": false,
        "pillarId": "pillar/news",
        "pillarName": "News"
      },
      {
        "id": "technology/2018/nov/15/being-bionic-how-technology-transformed-my-life-prosthetic-limbs",
        "type": "article",
        "sectionId": "technology",
        "sectionName": "Technology",
        "webPublicationDate": "2018-11-15T06:00:27Z",
        "webTitle": "Being bionic: how technology transformed my life",
        "webUrl": "https://www.theguardian.com/technology/2018/nov/15/being-bionic-how-technology-transformed-my-life-prosthetic-limbs",
        "apiUrl": "https://content.guardianapis.com/technology/2018/nov/15/being-bionic-how-technology-transformed-my-life-prosthetic-limbs",
        "isHosted": false,
        "pillarId": "pillar/news",
        "pillarName": "News"
      },
      {
        "id": "technology/2019/jan/17/tracking-technology-to-reveal-whether-food-produced-legally-and-sustainably",
        "type": "article",
        "sectionId": "technology",
        "sectionName": "Technology",
        "webPublicationDate": "2019-01-17T05:36:09Z",
        "webTitle": "Tracking technology to reveal whether food produced legally and sustainably",
        "webUrl": "https://www.theguardian.com/technology/2019/jan/17/tracking-technology-to-reveal-whether-food-produced-legally-and-sustainably",
        "apiUrl": "https://content.guardianapis.com/technology/2019/jan/17/tracking-technology-to-reveal-whether-food-produced-legally-and-sustainably",
        "isHosted": false,
        "pillarId": "pillar/news",
        "pillarName": "News"
      },
      {
        "id": "technology/2018/oct/18/amazon-creates-600-technology-jobs-in-manchester",
        "type": "article",
        "sectionId": "technology",
        "sectionName": "Technology",
        "webPublicationDate": "2018-10-18T21:01:04Z",
        "webTitle": "Amazon creates 600 technology jobs in Manchester",
        "webUrl": "https://www.theguardian.com/technology/2018/oct/18/amazon-creates-600-technology-jobs-in-manchester",
        "apiUrl": "https://content.guardianapis.com/technology/2018/oct/18/amazon-creates-600-technology-jobs-in-manchester",
        "isHosted": false,
        "pillarId": "pillar/news",
        "pillarName": "News"
      },
      {
        "id": "world/2019/jan/03/heathrow-and-gatwick-millions-anti-drone-technology",
        "type": "article",
        "sectionId": "world",
        "sectionName": "World news",
        "webPublicationDate": "2019-01-03T20:02:33Z",
        "webTitle": "Heathrow and Gatwick invest millions in anti-drone technology",
        "webUrl": "https://www.theguardian.com/world/2019/jan/03/heathrow-and-gatwick-millions-anti-drone-technology",
        "apiUrl": "https://content.guardianapis.com/world/2019/jan/03/heathrow-and-gatwick-millions-anti-drone-technology",
        "isHosted": false,
        "pillarId": "pillar/news",
        "pillarName": "News"
      },
      {
        "id": "society/2018/dec/18/anti-drone-technology-introduced-english-prisons-skyfence",
        "type": "article",
        "sectionId": "society",
        "sectionName": "Society",
        "webPublicationDate": "2018-12-18T16:46:45Z",
        "webTitle": "Anti-drone technology could be introduced in English prisons",
        "webUrl": "https://www.theguardian.com/society/2018/dec/18/anti-drone-technology-introduced-english-prisons-skyfence",
        "apiUrl": "https://content.guardianapis.com/society/2018/dec/18/anti-drone-technology-introduced-english-prisons-skyfence",
        "isHosted": false,
        "pillarId": "pillar/news",
        "pillarName": "News"
      },
      {
        "id": "technology/2018/dec/06/huawei-faces-catastrophe-in-the-technology-cold-war",
        "type": "article",
        "sectionId": "technology",
        "sectionName": "Technology",
        "webPublicationDate": "2018-12-06T12:51:42Z",
        "webTitle": "Huawei faces catastrophe in the technology cold war",
        "webUrl": "https://www.theguardian.com/technology/2018/dec/06/huawei-faces-catastrophe-in-the-technology-cold-war",
        "apiUrl": "https://content.guardianapis.com/technology/2018/dec/06/huawei-faces-catastrophe-in-the-technology-cold-war",
        "isHosted": false,
        "pillarId": "pillar/news",
        "pillarName": "News"
      },
      {
        "id": "environment/2018/nov/13/hawksbill-turtle-poaching-to-be-fought-with-dna-technology",
        "type": "article",
        "sectionId": "environment",
        "sectionName": "Environment",
        "webPublicationDate": "2018-11-12T17:00:21Z",
        "webTitle": "Hawksbill turtle poaching to be fought with DNA technology",
        "webUrl": "https://www.theguardian.com/environment/2018/nov/13/hawksbill-turtle-poaching-to-be-fought-with-dna-technology",
        "apiUrl": "https://content.guardianapis.com/environment/2018/nov/13/hawksbill-turtle-poaching-to-be-fought-with-dna-technology",
        "isHosted": false,
        "pillarId": "pillar/news",
        "pillarName": "News"
      },
      {
        "id": "technology/2019/feb/24/are-you-being-scanned-how-facial-recognition-technology-follows-you-even-as-you-shop",
        "type": "article",
        "sectionId": "technology",
        "sectionName": "Technology",
        "webPublicationDate": "2019-02-24T02:11:52Z",
        "webTitle": "Are you being scanned? How facial recognition technology follows you, even as you shop",
        "webUrl": "https://www.theguardian.com/technology/2019/feb/24/are-you-being-scanned-how-facial-recognition-technology-follows-you-even-as-you-shop",
        "apiUrl": "https://content.guardianapis.com/technology/2019/feb/24/are-you-being-scanned-how-facial-recognition-technology-follows-you-even-as-you-shop",
        "isHosted": false,
        "pillarId": "pillar/news",
        "pillarName": "News"
      }
    ]
  }
}